Vivado Simulator 2019.2
Copyright 1986-1999, 2001-2019 Xilinx, Inc. All Rights Reserved.
Running: /mnt/share/LinuxPrograms/Vivado/2019.2/bin/unwrapped/lnx64.o/xelab -wto abfa80aba3c2435e8350772dfc77a712 --incr --debug typical --relax --mt 8 --maxdelay -L xil_defaultlib -L simprims_ver -L secureip --snapshot AES_top_tb_time_impl -transport_int_delays -pulse_r 0 -pulse_int_r 0 -pulse_e 0 -pulse_int_e 0 xil_defaultlib.AES_top_tb xil_defaultlib.glbl -log elaborate.log 
Using 8 slave threads.
Starting static elaboration
Pass Through NonSizing Optimizer
Completed static elaboration
Starting simulation data flow analysis
Completed simulation data flow analysis
INFO: [XSIM 43-3451] SDF backannotation process started with SDF file "AES_top_tb_time_impl.sdf", for root module "AES_top_tb/DUT".
INFO: [XSIM 43-3452] SDF backannotation was successful for SDF file "AES_top_tb_time_impl.sdf", for root module "AES_top_tb/DUT".
Time Resolution for simulation is 1ps
Compiling package std.standard
Compiling package std.textio
Compiling package ieee.std_logic_1164
Compiling package vl.vl_types
Compiling module xil_defaultlib.glbl
Compiling module simprims_ver.FDRE_default
Compiling module simprims_ver.LUT6
Compiling module simprims_ver.x_lut2_mux4
Compiling module simprims_ver.LUT2
Compiling module simprims_ver.LUT5
Compiling module simprims_ver.x_lut3_mux8
Compiling module simprims_ver.LUT3
Compiling module simprims_ver.LUT4
Compiling module simprims_ver.MUXF7
Compiling module simprims_ver.x_lut1_mux2
Compiling module simprims_ver.LUT1
Compiling module simprims_ver.FDCE_default
Compiling module xil_defaultlib.Counter
Compiling module simprims_ver.FDPE_default
Compiling module simprims_ver.latchsre_ldce
Compiling module simprims_ver.LDCE(INIT=1'b1)
Compiling module simprims_ver.LDCE
Compiling module xil_defaultlib.KeyExpansion_FSM
Compiling module xil_defaultlib.KeyExpansion_I_O
Compiling module simprims_ver.FDSE_default
Compiling module xil_defaultlib.FSM_AES
Compiling module xil_defaultlib.AESRound
Compiling module simprims_ver.MUXF8
Compiling module xil_defaultlib.AES
Compiling module simprims_ver.BUFG
Compiling module simprims_ver.IBUF
Compiling module simprims_ver.MMCME2_ADV(CLKFBOUT_MULT_F=10.0,...
Compiling module xil_defaultlib.clk_wiz_0_clk_wiz_0_clk_wiz
Compiling module xil_defaultlib.clk_wiz_0
Compiling module simprims_ver.OBUF
Compiling module xil_defaultlib.AES_top
Compiling architecture aes_top_tb_arch of entity xil_defaultlib.aes_top_tb
Built simulation snapshot AES_top_tb_time_impl
